%YAML 1.1
%TAG !u! tag:unity3d.com,2011:
--- !u!1001 &100100000
Prefab:
  m_ObjectHideFlags: 1
  serializedVersion: 2
  m_Modification:
    m_TransformParent: {fileID: 0}
    m_Modifications: []
    m_RemovedComponents: []
  m_ParentPrefab: {fileID: 0}
  m_RootGameObject: {fileID: 1515460842120588}
  m_IsPrefabParent: 1
--- !u!1 &1515460842120588
GameObject:
  m_ObjectHideFlags: 0
  m_PrefabParentObject: {fileID: 0}
  m_PrefabInternal: {fileID: 100100000}
  serializedVersion: 5
  m_Component:
  - component: {fileID: 4690879188774000}
  - component: {fileID: 114687209425872690}
  m_Layer: 0
  m_Name: HeadDefense
  m_TagString: Untagged
  m_Icon: {fileID: 0}
  m_NavMeshLayer: 0
  m_StaticEditorFlags: 0
  m_IsActive: 1
--- !u!4 &4690879188774000
Transform:
  m_ObjectHideFlags: 1
  m_PrefabParentObject: {fileID: 0}
  m_PrefabInternal: {fileID: 100100000}
  m_GameObject: {fileID: 1515460842120588}
  m_LocalRotation: {x: -0, y: -0, z: -0, w: 1}
  m_LocalPosition: {x: 0, y: 2.75, z: -5.58}
  m_LocalScale: {x: 1, y: 1.96, z: 1}
  m_Children: []
  m_Father: {fileID: 0}
  m_RootOrder: 0
  m_LocalEulerAnglesHint: {x: 0, y: 0, z: 0}
--- !u!114 &114687209425872690
MonoBehaviour:
  m_ObjectHideFlags: 1
  m_PrefabParentObject: {fileID: 0}
  m_PrefabInternal: {fileID: 100100000}
  m_GameObject: {fileID: 1515460842120588}
  m_Enabled: 1
  m_EditorHideFlags: 0
  m_Script: {fileID: 11500000, guid: b003c6ea8e1a8704486a0587ee85c1d3, type: 3}
  m_Name: 
  m_EditorClassIdentifier: 
  Name: HeadDefense
  Equipments:
  - Agility: 1
    SpeedToFinish: 0
    Life: 2
    CanShoot: 0
    Cooldown: 0
    Price: 50
    Niveau: 0
    Name: Defense
    GearType: 0
  - Agility: 1
    SpeedToFinish: 2
    Life: 2
    CanShoot: 0
    Cooldown: 0
    Price: 85
    Niveau: 0
    Name: Defense
    GearType: 0
  - Agility: 1
    SpeedToFinish: 3
    Life: 3
    CanShoot: 0
    Cooldown: 0
    Price: 120
    Niveau: 0
    Name: Defense
    GearType: 0
  EquipedUpgrade: 0
  Bought: 0
